info face="LondrinaSolid-Regular" size=48 bold=0 italic=0 charset="" unicode=0 stretchH=100 smooth=1 aa=1 padding=0,0,0,0 spacing=2,2
common lineHeight=57 base=45 scaleW=256 scaleH=128 pages=1 packed=0
page id=0 file="fntRankScore.png"
chars count=12
char id=32     x=185   y=56    width=0     height=0     xoffset=0     yoffset=46    xadvance=10    page=0 chnl=0 letter="space"
char id=44     x=159   y=56    width=24    height=28    xoffset=1     yoffset=23    xadvance=9     page=0 chnl=0 letter=","
char id=48     x=2     y=2     width=40    height=52    xoffset=1     yoffset=-6    xadvance=25    page=0 chnl=0 letter="0"
char id=49     x=124   y=56    width=33    height=52    xoffset=0     yoffset=-6    xadvance=18    page=0 chnl=0 letter="1"
char id=50     x=85    y=2     width=39    height=52    xoffset=1     yoffset=-6    xadvance=24    page=0 chnl=0 letter="2"
char id=51     x=84    y=56    width=38    height=52    xoffset=1     yoffset=-6    xadvance=24    page=0 chnl=0 letter="3"
char id=52     x=126   y=2     width=39    height=52    xoffset=1     yoffset=-6    xadvance=23    page=0 chnl=0 letter="4"
char id=53     x=167   y=2     width=39    height=52    xoffset=2     yoffset=-6    xadvance=24    page=0 chnl=0 letter="5"
char id=54     x=208   y=2     width=39    height=52    xoffset=1     yoffset=-6    xadvance=24    page=0 chnl=0 letter="6"
char id=55     x=2     y=56    width=39    height=52    xoffset=1     yoffset=-6    xadvance=23    page=0 chnl=0 letter="7"
char id=56     x=44    y=2     width=39    height=52    xoffset=1     yoffset=-5    xadvance=24    page=0 chnl=0 letter="8"
char id=57     x=43    y=56    width=39    height=52    xoffset=1     yoffset=-6    xadvance=25    page=0 chnl=0 letter="9"
